{
    "swagger":{
        "outputDirectory":".",
        "entryFile":"./src/app.ts"
    },
    "routes":{
        "basePath":"/api/",
        "entryFile":"./src/app.ts",
        "routesDir":"./src"
    }
}